442,274,422,785
41,258,701,81
848,679,550,26
885,876,52,651
500,843,712,835
315,368,625,80
335,511,708,138
806,849,216,792
703,859,16,105
819,576,889,369
356,407,859,194
313,98,10,65
403,853,670,521
878,352,73,280
977,145,867,243
97,255,683,442
340,791,824,36
105,163,94,118
427,622,42,852
371,701,532,896
831,185,590,425
449,861,75,0
589,931,395,493
52,491,271,799
604,750,155,109
948,821,410,539
401,744,892,86
744,871,388,959
10,319,412,271
205,880,496,606
715,459,834,774
632,652,544,935
800,513,458,311
230,121,71,852
720,68,125,913
548,360,534,302
382,169,468,782
511,902,558,107
416,332,499,953
70,640,716,801
168,654,937,414
329,253,142,779
992,789,527,317
826,845,148,536
378,26,835,981
71,94,411,219
939,789,507,633
662,879,787,286
863,904,286,340
75,25,692,598
282,494,181,401
53,241,503,278
689,319,991,492
493,240,244,875
360,1,125,266
702,413,131,173
555,878,330,476
113,606,536,654
82,221,58,71
432,521,9,139
100,155,466,717
437,494,275,402
69,991,819,38
8,788,869,189
945,347,533,818
446,450,830,80
819,912,597,365
382,990,963,66
683,18,319,655
366,153,25,1000
772,564,46,728
930,791,718,39
849,106,666,900
750,690,800,251
862,465,63,527
879,620,785,163
593,614,631,430
840,392,713,453
213,884,771,49
110,609,661,98
132,953,236,47
310,833,812,16
513,460,668,722
240,882,582,696
635,234,511,47
108,636,623,455
428,756,192,98
806,930,465,153
315,695,150,8
445,276,858,672
199,753,83,731
376,344,197,313
457,45,66,726
475,778,120,745
129,543,391,590
449,183,721,358
822,696,242,799
140,753,362,583
560,36,448,871
407,845,501,412
731,525,238,698
413,326,346,16
742,128,784,163
865,232,556,703
992,365,379,899
433,601,28,144
529,606,719,340
971,631,253,413
953,725,74,316
638,939,589,178
711,103,82,726
450,707,570,168
6,993,126,813
756,910,810,383
641,785,203,974
182,785,235,26
82,655,308,544
494,0,841,718
613,235,618,810
794,702,350,872
940,384,484,43
146,894,874,913
185,128,818,869
90,745,667,760
472,29,820,202
339,368,110,665
817,472,125,319
317,246,713,762
651,352,825,95
486,395,505,191
966,91,687,284
53,57,386,834
811,755,260,577
882,457,897,281
4,862,8,545
747,568,949,749
832,80,612,980
493,619,72,943
696,508,145,328
171,143,271,177
138,65,642,604
906,583,503,900
65,797,182,367
373,813,899,936
329,342,705,761
570,694,475,967
880,696,879,418
910,497,235,650
566,744,373,785
822,217,502,734
124,360,936,154
345,761,325,325
189,15,560,244
578,442,736,163
83,783,234,315
547,413,15,616
900,180,859,871
181,538,635,108
808,579,230,88
470,206,394,326
30,400,702,704
642,450,587,225
749,947,488,520
166,284,866,416
235,601,113,761
613,948,530,515
557,631,908,530
189,396,4,710
193,480,621,512
517,720,194,740
23,603,87,472
392,531,454,558
894,992,616,612
627,895,561,945
642,851,199,203
890,958,527,833
786,728,413,628
805,369,350,22
892,487,767,994
442,587,311,435
63,28,597,346
814,516,504,898
835,710,223,388
474,926,168,36
117,445,540,554
931,974,742,962
217,961,766,683
706,933,708,720
784,292,809,160
487,106,206,461
360,146,838,106
377,708,289,164
605,575,217,705
568,389,547,640
870,671,767,33
16,468,674,595
791,797,327,163
113,72,46,926
460,236,950,246
550,138,371,390
361,640,819,921
845,645,493,904
517,587,659,496
389,475,281,736
349,505,113,796
868,434,579,831
387,480,836,437
122,612,876,202
706,526,455,994
322,945,989,407
332,289,490,829
218,888,156,736
214,930,155,123
521,750,873,773
272,331,897,819
906,932,248,916
908,508,799,334
188,4,923,579
10,774,992,459
629,287,947,562
774,400,521,39
440,644,710,961
341,635,409,893
986,407,428,151
884,510,219,579
114,518,159,544
792,385,66,23
635,821,686,749
634,294,638,927
450,287,860,633
21,598,304,810
907,473,272,843
876,382,263,474
471,599,258,953
483,438,98,247
2,733,544,594
222,552,736,603
847,301,662,491
601,852,310,237
939,304,167,489
530,371,282,850
718,931,925,212
54,663,70,492
335,133,729,710
791,499,658,322
32,868,67,552
684,871,723,928
953,999,275,360
60,289,586,801
941,221,141,343
776,812,365,120
574,257,408,497
143,138,152,589
972,218,508,684
182,532,769,613
708,911,380,823
341,705,748,220
282,364,999,707
997,509,653,661
36,320,583,292
142,3,351,39
447,686,124,316
104,122,208,385
562,918,740,485
153,935,555,758
896,358,91,142
12,934,378,312
550,497,345,8
993,463,789,970
492,699,557,908
221,385,1,749
707,331,609,330
52,705,193,854
134,177,640,473
564,127,915,153
196,459,997,130
858,965,804,708
35,660,155,813
592,830,968,811
339,773,756,47
134,744,160,341
531,880,933,477
461,600,751,737
605,679,731,389
703,83,284,459
730,985,882,881
246,35,681,877
378,725,81,234
421,124,368,784
109,129,822,205
709,856,678,518
186,974,399,94
368,998,266,351
497,748,62,613
562,395,638,256
804,301,393,776
421,118,629,817
861,378,437,955
374,841,557,631
44,0,0,778
262,665,30,111
750,429,573,64
173,862,306,486
355,488,227,907
514,93,979,954
53,548,683,69
260,449,868,927
192,275,874,977
140,715,49,370
785,983,963,994
509,333,38,379
717,73,879,150
889,215,308,324
963,397,161,755
399,619,83,297
632,26,7,392
925,166,793,511
896,937,676,130
917,625,782,820
870,330,993,684
894,868,1,393
680,581,446,451
436,291,128,196
433,238,440,190
720,240,176,760
275,599,713,746
481,361,399,166
585,60,449,601
916,830,391,634
666,363,782,106
49,273,933,257
891,90,64,351
437,695,382,887
490,586,714,33
912,92,938,511
15,286,824,261
202,437,99,995
383,633,312,59
298,983,408,166
218,672,279,562
976,391,217,959
857,917,33,916
461,650,489,119
634,691,615,733
50,146,301,74
754,998,727,12
539,860,22,606
340,341,313,932
520,841,473,385
920,35,52,710
169,73,619,119
998,654,114,823
538,810,16,431
482,52,298,306
689,58,621,384
729,726,764,702
685,229,427,823
758,397,538,685
261,578,661,117
963,733,520,273
901,189,305,315
714,673,486,568
787,490,867,398
295,583,414,988
38,725,211,368
179,715,445,918
862,537,355,198
719,37,435,780
103,105,850,500
932,899,513,943
241,143,590,164
880,91,251,480
525,557,743,935
245,966,516,940
110,640,232,674
504,519,97,169
426,263,324,455
528,191,870,280
124,726,881,390
103,335,509,849
767,417,783,607
970,968,509,278
487,391,315,586
512,322,976,402
654,946,696,776
353,116,670,165
240,239,927,349
483,393,952,371
986,623,873,953
5,916,652,233
619,752,100,609
554,150,837,989
182,552,334,484
854,782,787,460
211,404,214,337
304,170,413,15
687,702,153,499
10,415,195,365
295,306,635,151
776,943,755,503
712,957,92,867
755,144,66,984
36,609,58,175
763,949,252,869
505,308,226,388
644,954,30,795
341,401,337,147
5,529,175,889
173,297,597,441
764,190,337,323
250,568,425,700
781,520,348,34
789,228,676,486
958,138,622,418
350,406,418,990
781,327,179,640
21,798,961,570
276,410,756,818
593,527,174,151
31,64,169,408
518,139,455,424
444,572,679,419
47,349,399,581
115,232,620,604
89,390,999,410
469,998,92,618
489,562,192,574
915,398,141,971
328,750,477,675
619,360,488,278
382,858,900,501
0,987,230,458
769,535,737,317
259,676,656,455
381,136,599,750
490,333,914,644
814,841,537,893
618,392,72,719
849,779,572,703
58,921,275,530
836,940,753,281
229,693,512,292
922,176,632,288
189,702,975,869
605,38,516,662
786,301,913,480
196,897,697,935
298,163,70,250
524,977,829,231
566,376,296,633
729,906,599,563
800,170,740,80
562,164,393,72
760,586,694,142
878,667,819,12
597,897,317,154
649,904,698,101
931,135,928,413
261,24,492,489
770,734,440,460
126,896,606,129
99,525,941,26
765,376,270,635
493,474,127,997
701,748,25,739
992,80,697,672
127,165,101,670
605,531,170,649
312,525,231,986
376,835,859,643
817,100,706,630
18,744,54,339
647,596,241,522
83,121,135,664
718,560,135,360
874,435,359,963
306,881,805,58
967,457,706,210
514,774,430,746
288,719,614,245
477,71,329,879
102,694,756,536
113,36,883,119
131,118,472,354
46,509,284,913
702,642,65,923
5,277,138,411
386,126,588,310
348,370,608,55
134,780,379,518
650,878,472,747
379,562,66,154
827,59,706,668
688,364,849,20
630,791,159,463
17,519,817,335
580,825,868,967
323,274,683,619
458,566,190,396
710,251,197,635
770,285,705,810
263,876,211,854
843,430,656,230
613,29,871,866
950,106,681,647
814,322,137,661
286,101,184,260
549,624,96,325
330,893,927,239
424,607,895,437
691,835,734,513
935,701,133,440
560,221,163,811
127,86,865,108
206,610,435,754
508,264,12,836
765,669,82,125
848,808,310,574
360,823,797,894
3,413,749,778
883,483,223,309
692,576,910,603
831,452,821,299
820,526,918,158
930,188,428,543
831,646,692,198
525,641,615,187
600,690,251,576
638,659,949,293
464,806,593,605
737,517,680,853
151,686,588,800
235,966,284,954
230,78,301,71
860,13,171,338
233,326,737,786
178,490,910,699
217,12,324,709
325,52,603,515
686,576,834,30
344,727,867,676
435,543,352,795
922,385,796,313
289,632,272,31
596,288,552,523
490,814,267,866
247,403,597,78
907,454,30,265
999,644,890,738
206,608,748,327
265,1,293,455
93,295,257,864
120,654,53,794
689,692,302,744
590,680,87,43
225,766,793,870
280,160,540,361
979,315,526,517
579,794,781,6
258,291,149,822
221,227,163,703
3,872,769,23
228,926,459,975
951,754,223,654
851,387,751,101
382,921,220,317
431,891,765,251
128,498,587,376
563,649,981,561
626,841,29,205
559,524,461,12
76,336,690,421
906,746,873,509
156,427,943,98
998,329,469,699
435,847,472,780
424,509,953,354
802,125,905,75
800,320,812,351
808,464,20,830
26,142,859,450
155,861,928,700
682,157,228,107
640,729,422,374
68,724,517,495
198,641,319,857
782,636,359,271
33,554,472,934
435,323,512,868
129,154,639,636
216,492,330,273
652,737,168,331
429,262,197,168
431,798,386,480
676,829,376,754
628,154,721,644
131,952,664,583
777,786,35,669
80,228,392,638
566,719,951,540
861,674,672,886
376,694,620,42
892,323,136,423
129,587,202,672
590,646,155,256
696,732,297,791
243,542,74,657
75,713,920,524
518,368,413,944
746,48,835,24
503,544,351,810
161,882,205,70
863,600,904,814
355,411,88,751
593,319,245,624
133,724,239,424
263,144,19,943
367,867,386,37
98,469,805,98
229,375,211,429
838,15,583,707
707,484,992,756
26,888,997,733
597,803,479,938
710,407,756,951
196,269,25,641
943,630,861,421
10,295,248,277
536,575,427,137
495,417,590,833
681,824,783,638
254,174,293,355
960,444,258,679
545,291,253,782
570,428,250,968
485,816,759,989
581,916,826,294
544,16,175,636
127,245,26,971
167,528,837,86
722,604,929,698
512,177,11,5
941,854,782,882
351,665,107,621
711,464,536,447
779,833,254,326
628,877,885,116
574,908,28,839
641,952,99,581
90,210,23,885
523,640,707,634
355,965,474,559
619,214,868,479
567,925,801,695
106,724,870,775
789,335,269,832
848,353,143,782
935,449,754,341
911,46,919,70
351,350,78,360
41,960,660,23
178,789,508,486
778,732,321,479
418,784,696,527
725,227,681,837
884,51,22,188
889,235,699,316
269,219,854,296
453,804,871,969
622,202,245,212
120,183,901,534
589,29,617,97
213,642,649,177
585,969,412,571
172,667,359,145
890,0,358,550
344,954,697,351
267,930,341,881
256,605,900,300
829,445,661,41
850,70,816,544
242,223,174,478
425,530,596,970
438,808,640,547
274,386,143,584
529,975,928,492
319,306,153,602
992,64,996,485
987,742,839,947
875,748,759,670
85,93,570,209
159,864,719,606
786,873,779,422
206,835,420,106
460,526,424,602
312,771,708,111
298,588,930,951
464,535,305,744
301,139,202,118
862,572,884,627
486,605,92,967
616,706,105,774
16,533,229,257
31,709,689,310
922,739,848,803
185,612,785,773
651,87,375,975
643,327,5,542
724,937,994,664
675,674,571,502
659,731,733,460
892,799,489,399
452,531,265,577
510,526,365,670
625,452,975,843
858,146,328,192
408,149,874,798
208,396,228,440
946,209,713,616
373,432,953,738
745,22,402,348
926,776,278,101
93,659,324,113
38,42,397,613
441,819,5,543
749,242,25,944
572,116,800,45
315,542,216,57
619,677,670,90
223,658,2,49
972,868,407,66
889,953,427,971
149,527,694,126
947,521,108,329
527,740,972,877
263,141,385,27
70,928,591,282
515,978,949,934
835,317,386,954
346,21,595,826
97,341,298,211
895,523,731,731
368,518,852,210
114,171,980,783
362,996,280,490
924,324,125,602
468,63,781,890
70,500,955,479
877,692,68,234
53,816,836,432
199,446,472,393
371,553,169,716
662,414,445,526
25,12,469,158
630,156,660,164
777,461,648,441
334,522,482,541
344,227,340,423
55,330,235,839
918,151,817,945
519,295,0,959
798,986,508,296
883,286,576,707
571,173,490,1000
933,300,647,777
664,288,397,584
721,313,515,47
73,265,450,391
313,49,743,300
234,948,268,832
511,541,819,124
851,200,713,198
924,248,266,628
210,525,3,602
470,398,577,142
462,880,729,433
588,870,184,182
832,392,591,712
226,61,662,278
179,320,429,425
280,9,49,355
475,803,442,724
279,960,590,576
234,205,104,890
479,756,369,849
311,248,723,568
454,269,793,194
124,836,21,284
554,783,675,0
591,849,412,836
126,870,77,918
43,580,370,790
465,466,31,442
121,431,188,81
91,856,220,930
661,530,533,881
107,391,682,860
425,693,768,501
615,219,958,848
812,29,746,197
11,678,848,822
340,84,932,786
365,364,529,681
258,424,571,731
694,931,35,421
713,395,738,911
21,895,542,717
468,869,891,911
847,367,764,201
970,81,85,636
148,378,368,313
359,334,484,209
409,362,800,575
715,447,868,487
629,665,169,136
81,230,680,762
270,280,568,937
599,40,443,725
933,116,153,52
565,290,193,96
44,597,936,726
634,948,127,51
130,214,182,401
914,811,792,90
548,481,265,81
264,520,692,373
852,839,958,572
958,723,661,834
248,173,883,758
454,245,559,872
215,887,203,332
169,962,349,599
988,23,851,150
914,573,588,512
214,737,466,548
276,650,995,408
132,228,154,322
73,92,593,331
789,479,167,474
600,223,486,523
419,371,559,378
30,904,473,479
472,222,533,709
169,233,872,585
266,835,195,56
836,23,792,638
0,591,884,2
568,783,734,948
369,925,206,28
422,22,637,826
73,149,292,308
898,423,934,871
486,396,697,475
755,792,635,950
603,743,994,207
635,93,701,611
659,267,244,224
328,552,75,948
661,578,545,568
289,275,542,177
13,237,91,739
302,809,356,328
373,406,549,581
869,648,857,159
53,945,470,110
385,152,4,833
759,492,470,692
552,665,936,271
574,644,169,631
183,316,241,735
514,422,671,512
128,733,442,408
383,355,204,967
220,208,989,345
935,519,754,61
825,320,290,576
491,166,483,57
138,333,2,932
644,761,393,407
798,185,918,867
836,882,208,662
173,384,307,554
495,466,527,894
229,228,482,210
352,769,534,75
668,667,679,233
708,588,33,469
464,481,307,161
724,654,479,726
957,357,234,565
374,120,330,665
394,265,891,127
348,256,411,30
428,92,358,784
962,640,148,209
651,618,682,262
689,988,341,276
154,152,428,191
302,407,502,955
678,655,280,927
144,424,593,62
527,108,235,205
729,469,581,29
436,490,611,506
738,895,897,605
439,433,560,238
867,527,118,491
264,886,40,565
202,687,242,453
355,437,687,312
166,570,654,713
550,599,499,548
555,539,566,38
967,158,506,65
495,771,668,230
137,713,85,988
76,33,628,683
937,68,928,535
955,972,560,445
661,608,6,714
203,581,926,60
852,695,853,558
534,725,630,913
404,989,829,169
706,835,777,955
973,918,38,935
250,269,75,982
414,297,456,207
475,76,982,969
409,184,974,908
42,455,369,491
654,471,607,948
7,124,964,527
816,132,87,980
241,867,426,67
928,377,190,169
173,668,416,951
266,402,683,250
783,317,449,813
12,269,487,473
854,234,498,36
345,20,980,128
386,416,808,513
647,454,973,829
322,125,995,287
973,939,172,582
921,776,485,606
42,576,942,474
383,80,927,425
537,3,594,650
88,443,832,734
100,706,553,357
182,914,566,947
718,873,679,41
257,28,700,289
113,9,566,969
944,824,380,223
546,99,57,741
485,602,524,189
138,28,372,216
481,131,156,927
278,618,389,307
439,355,275,844
404,639,593,15
588,961,866,552
425,649,958,516
225,357,44,639
376,35,488,637
520,991,599,915
348,143,352,225
524,353,214,762
577,100,265,286
445,633,275,917
554,508,881,205
896,870,172,790
951,666,161,684
970,852,252,446
123,167,223,437
980,253,897,272
622,975,657,825
291,948,788,706
450,580,554,337
139,381,1000,319
444,794,595,526
774,557,395,280
591,505,517,652
612,517,747,174
394,869,56,636
619,423,96,402
338,713,388,529
652,833,930,658
285,73,225,930
281,381,372,480
878,929,938,91
989,309,812,959
806,48,308,322
495,317,20,832
593,356,309,869
304,756,149,681
46,532,301,717
